refV = 3907
0,  16.19,  13.38,  3864.56,  3.75 
1,  46.62,  45.50,  3859.25,  4.69 
2,  81.00,  83.19,  3860.94,  4.38 
3,  119.00,  120.88,  3860.00,  5.31 
4,  156.44,  159.25,  3859.31,  4.44 
5,  196.56,  196.81,  3858.38,  5.19 
6,  234.50,  235.50,  3859.56,  5.44 
7,  276.62,  274.31,  3858.69,  5.25 
8,  315.50,  314.12,  3857.75,  3.88 
9,  354.50,  354.69,  3860.12,  4.62 
10,  394.62,  394.25,  3861.00,  5.19 
11,  433.19,  434.69,  3861.56,  4.44 
12,  471.62,  473.81,  3860.62,  40.25 
13,  509.81,  505.75,  3861.62,  191.50 
14,  548.88,  530.19,  3848.62,  546.75 
15,  587.12,  549.56,  3826.56,  1047.12 
16,  625.75,  566.75,  3797.38,  1615.81 
17,  665.69,  582.56,  3768.00,  2200.75 
18,  706.88,  597.75,  3737.44,  2769.00 
19,  748.50,  610.25,  3720.75,  3143.88 
20,  788.38,  616.88,  3714.62,  3262.56 
21,  827.44,  618.06,  3713.12,  3302.00 
22,  866.25,  620.00,  3713.81,  3320.44 
23,  903.31,  623.06,  3713.50,  3333.06 
24,  939.44,  623.56,  3715.06,  3344.19 
25,  977.06,  623.94,  3714.31,  3352.94 
26,  1015.94,  625.00,  3713.00,  3360.06 
27,  1059.75,  624.75,  3709.88,  3367.56 
28,  1101.50,  626.00,  3706.62,  3373.00 
29,  1140.75,  627.50,  3713.44,  3379.50 
30,  1179.56,  628.00,  3716.69,  3386.25 
31,  1218.12,  629.19,  3716.00,  3389.88 
32,  1256.62,  629.31,  3714.44,  3396.44 
33,  1293.19,  630.00,  3714.31,  3401.62 
34,  1329.75,  630.44,  3714.12,  3406.44 
35,  1366.75,  630.56,  3714.00,  3411.44 
36,  1409.00,  631.56,  3714.62,  3416.75 
37,  1452.12,  632.69,  3713.25,  3420.81 
38,  1489.88,  633.25,  3712.94,  3426.31 
39,  1529.75,  632.50,  3712.88,  3430.25 
40,  1570.38,  633.62,  3715.00,  3436.00 
41,  1608.38,  634.38,  3714.94,  3440.00 
42,  1646.44,  632.69,  3714.69,  3444.31 
43,  1682.94,  633.62,  3714.81,  3447.69 
44,  1719.75,  639.06,  3714.19,  3451.31 
45,  1757.62,  638.44,  3715.44,  3456.12 
46,  1795.25,  635.56,  3716.00,  3461.31 
47,  1836.25,  638.69,  3714.81,  3465.38 
48,  1878.81,  640.12,  3715.25,  3469.44 
49,  1918.69,  639.56,  3714.38,  3472.88 
50,  1960.00,  639.88,  3715.50,  3476.75 
51,  1998.25,  640.38,  3714.06,  3480.38 
52,  2036.62,  640.31,  3714.25,  3483.44 
53,  2074.00,  640.44,  3715.56,  3489.31 
54,  2110.94,  648.44,  3716.62,  3492.69 
55,  2148.88,  646.88,  3715.75,  3497.38 
56,  2186.44,  644.81,  3716.25,  3500.94 
57,  2228.19,  647.19,  3715.94,  3504.62 
58,  2269.12,  645.12,  3715.25,  3507.94 
59,  2309.56,  646.12,  3715.81,  3512.19 
60,  2348.69,  645.81,  3716.31,  3516.06 
61,  2385.50,  645.12,  3717.69,  3520.56 
62,  2423.62,  646.75,  3718.12,  3524.25 
63,  2459.75,  647.31,  3718.00,  3528.12 
64,  2500.44,  647.44,  3717.88,  3530.62 
65,  2539.06,  647.88,  3718.62,  3535.38 
66,  2577.12,  648.56,  3717.31,  3539.38 
67,  2617.94,  648.00,  3716.62,  3544.62 
68,  2659.38,  648.44,  3715.38,  3547.50 
69,  2698.69,  649.00,  3714.56,  3550.69 
70,  2738.56,  649.81,  3714.31,  3555.31 
71,  2776.38,  650.50,  3716.50,  3557.81 
72,  2813.69,  650.50,  3722.12,  3561.50 
73,  2849.88,  650.44,  3722.12,  3564.94 
74,  2891.06,  651.06,  3722.19,  3571.00 
75,  2928.94,  651.25,  3719.94,  3573.00 
76,  2967.69,  650.94,  3719.19,  3576.75 
77,  3007.94,  652.00,  3719.56,  3581.62 
78,  3047.56,  653.12,  3717.62,  3584.62 
79,  3088.25,  653.31,  3719.19,  3588.69 
80,  3127.38,  653.62,  3718.00,  3592.56 
81,  3165.12,  654.31,  3718.38,  3595.88 
82,  3203.94,  654.94,  3718.19,  3598.94 
83,  3240.94,  654.12,  3719.06,  3603.38 
84,  3279.00,  654.25,  3718.12,  3608.69 
85,  3316.62,  653.88,  3719.50,  3611.31 
86,  3354.94,  654.81,  3717.81,  3612.75 
87,  3396.31,  654.00,  3717.88,  3618.19 
88,  3434.88,  653.75,  3717.69,  3622.12 
89,  3474.88,  655.00,  3716.50,  3625.44 
90,  3513.44,  656.94,  3715.44,  3629.75 
91,  3552.12,  660.75,  3716.06,  3632.75 
92,  3592.00,  660.06,  3718.06,  3636.25 
93,  3630.50,  659.88,  3720.81,  3640.38 
94,  3670.00,  660.06,  3720.31,  3643.44 
95,  3709.12,  661.19,  3719.94,  3646.19 
96,  3746.88,  660.94,  3721.12,  3652.06 
97,  3787.44,  660.25,  3720.19,  3653.50 
98,  3826.38,  662.12,  3719.50,  3658.56 
99,  3854.19,  661.56,  3719.56,  3661.50 
100,  3856.81,  659.81,  3720.62,  3661.31 
