refV = 3907,,,,
0,12,11.12,3862.75,4.25
1,45.5,44.75,3859.44,4.38
2,80.12,82.31,3859.25,3.62
3,118.06,119.56,3858.62,4.44
4,155.25,158.88,3860.94,3.56
5,194.5,196.06,3858.81,3.75
6,235.88,236.25,3859.56,4.56
7,275.44,273.69,3859,4.19
8,314.06,312.31,3858.56,3.75
9,354.44,354.62,3861.19,3
10,393.12,392.19,3861.25,3.06
11,430.62,431.56,3862.5,4
12,470.25,474.69,3863,3.81
13,508.81,512.75,3861.19,3.44
14,545.19,550.56,3862.44,3.38
15,584.06,589.06,3861.94,3.38
16,623.88,627.44,3862.25,3
17,663.12,666.69,3862.56,3.12
18,703.62,705.94,3862.19,3.69
19,744.25,745,3861.12,3.75
20,783.69,783.5,3862.38,2.75
21,821.38,821.81,3860.69,3.12
22,859.69,861.56,3862.5,4.81
23,896.69,899.44,3863.5,3.38
24,933.25,938.31,3863.19,3.38
25,969.31,977.38,3862.94,3.62
26,1010.19,1016.56,3863,3.25
27,1056.56,1057.06,3861.06,3.69
28,1094.44,1095.69,3860.88,3.94
29,1135.44,1135.19,3859.38,3.5
30,1174.12,1172.75,3860.19,7.44
31,1212.69,1211.38,3854.06,19
32,1250.25,1250.75,3827.62,46.38
33,1286.69,1288.81,3766.25,99.25
34,1324.31,1328.62,3643.81,207.5
35,1361.81,1367.81,3408,415.06
36,1400.31,1406.62,2987.75,785.31
37,1447.62,1445,2307.62,1387.75
38,1485.44,1483.31,1314.88,2266.81
39,1523.75,1521.81,144.44,3302
40,1563.56,1561.44,67.69,3369.69
41,1602.38,1598.44,58.19,3379.94
42,1640.12,1637.19,54.75,3386
43,1676.56,1676.31,52.25,3386.75
44,1713.06,1716.88,50.81,3388.88
45,1752.75,1757.69,50.62,3388.94
46,1789.75,1797.06,49.75,3390.44
47,1831.12,1837.06,48.81,3391.06
48,1872.06,1873.5,48.56,3391
49,1914.12,1912.94,49.31,3391.25
50,1953.75,1951.5,48.94,3390.94
51,1991.81,1989.06,48.62,3391.44
52,2031.81,2028.19,49.56,3390.94
53,2067.38,2066.19,49.12,3391.88
54,2106.38,2109.75,50.5,3392
55,2143.19,2152.75,50.12,3391.88
56,2181,2189.5,49.75,3391.94
57,2222.5,2228.75,50.56,3392
58,2263,2265.38,49.62,3390.75
59,2304.19,2303.75,52.62,3392.69
60,2344.25,2343,53.44,3391.69
61,2380.06,2380.81,52.38,3392.25
62,2417.81,2419.56,52.75,3392.31
63,2454.56,2457.44,52.81,3392.44
64,2495.94,2497.06,53,3391.69
65,2533.06,2535.88,51.81,3393
66,2573.56,2576.69,52.62,3391.19
67,2612.19,2614.5,51.81,3391.88
68,2653.19,2653.94,51.12,3392.25
69,2693.81,2691.75,51.44,3392.62
70,2733.56,2730.94,53.88,3393.5
71,2771.44,2770.19,55.94,3392.44
72,2809,2809.06,56,3391.94
73,2845.31,2847.75,56.56,3392.69
74,2886.75,2886.31,56.25,3392.94
75,2924.44,2925.31,55.31,3392.56
76,2962.75,2965.12,54.88,3393.75
77,3003.5,3003.25,56,3393.19
78,3043,3042.88,55.38,3392.12
79,3084,3082.44,55.12,3392.62
80,3122.06,3120.5,55.19,3392.06
81,3161.12,3159.69,56.12,3392.56
82,3198,3197.56,55.56,3391.94
83,3237.38,3237.12,55.94,3392.81
84,3274.44,3276.12,56.81,3394.38
85,3312.81,3313.81,57.06,3394.56
86,3350.19,3352.06,56.44,3393.44
87,3392.5,3390.19,55.94,3391.62
88,3432.38,3429.44,55.81,3392.44
89,3471.5,3471.19,54.75,3393.06
90,3510.19,3510.75,55.31,3392.25
91,3548.12,3548.69,57.25,3392.75
92,3586.94,3589.12,58.31,3391.12
93,3624.94,3629.06,58.5,3392.81
94,3665.25,3667.19,58.62,3392.31
95,3706.88,3706.69,59.88,3391.62
96,3745,3746,59.75,3392.62
97,3782.88,3785.19,60.12,3393.06
98,3822.81,3822.69,60.25,3393.44
99,3860.19,3860.5,60.69,3391.31
100,3881.38,3878.44,60.31,3393.44
